// Jest Snapshot v1, https://goo.gl/fbAQLP

exports[`Admin Product Card component should render Product Cards in Admin correctly 1`] = `
<ProductCard
  classes={
    Object {
      "card": "ProductCard-card-1",
      "content": "ProductCard-content-3",
      "media": "ProductCard-media-2",
    }
  }
/>
`;
